…
### Grid Search

Let’s begin our tuning with grid search and a regular grid. For glmnet models, evaluating penalty values is fairly cheap because of the use of the “submodel-trick”. The grid will use 20 penalty values, 5 mixture values, and 3 values for the number of hash features.

```{r}
five_star_grid <- 
  crossing(
    penalty = 10^seq(-3, 0, length = 20),
    mixture = c(0.01, 0.25, 0.50, 0.75, 1),
    num_terms = 2^c(8, 10, 12)
  )
five_star_grid
```
```
# A tibble: 300 × 3
   penalty mixture num_terms
     <dbl>   <dbl>     <dbl>
 1   0.001    0.01       256
 2   0.001    0.01      1024
 3   0.001    0.01      4096
 4   0.001    0.25       256
 5   0.001    0.25      1024
 6   0.001    0.25      4096
 7   0.001    0.5        256
 8   0.001    0.5       1024
 9   0.001    0.5       4096
10   0.001    0.75       256
# ℹ 290 more rows
# ℹ Use `print(n = ...)` to see more rows
```
…
