…
```{r rpart_merge_pred}
pred_products <- predict(prod_comp_wflow_fit, new_data = training_complaints)

values_pred <- pred_products |> 
  bind_cols(training_complaints |> select(product_value, complaint_id, company_dummy, state_dummy, zip_code))
values_pred

```

```         
 # A tibble: 60,650 × 6
   .pred_class       product_value complaint_id company_dummy state_dummy
   <fct>             <fct>         <fct>        <chr>         <chr>      
 1 Student loan      Student loan  41964        HEARTLAND PA… NY         
 2 Student loan      Mortgage      15241        NATIONSTAR M… VA         
 3 Student loan      Student loan  33702        AES/PHEAA     NJ         
 4 Mortgage          Mortgage      83023        U.S. BANCORP  MI         
 5 Student loan      Student loan  80756        Performant F… CA         
 6 Student loan      Student loan  85374        AES/PHEAA     OH         
 7 Student loan      Mortgage      68158        RUSHMORE LOA… NY         
 8 Student loan      Student loan  59944        Navient Solu… MI         
 9 Credit card or p… Credit card … 68536        U.S. BANCORP  NC         
10 Mortgage          Vehicle loan… 17380        ALLY FINANCI… ME         
# ℹ 60,640 more rows
# ℹ 1 more variable: zip_code <chr>
# ℹ Use `print(n = ...)` to see more rows
```
…
